<?xml version="1.0" encoding="UTF-8"?>
<svg width="224px" height="62px" viewBox="0 0 224 62" version="1.1" xmlns="http://www.w3.org/2000/svg" xmlns:xlink="http://www.w3.org/1999/xlink">
    <title>Group 6</title>
    <defs>
        <linearGradient x1="52.8324189%" y1="0%" x2="52.8324189%" y2="100%" id="linearGradient-1">
            <stop stop-color="#1F6BB2" offset="0%"></stop>
            <stop stop-color="#485CD0" offset="100%"></stop>
        </linearGradient>
        <linearGradient x1="18.103098%" y1="19.8293742%" x2="81.900658%" y2="71.6980547%" id="linearGradient-2">
            <stop stop-color="#ACFFFE" offset="0%"></stop>
            <stop stop-color="#83F0C8" offset="99.9129012%"></stop>
        </linearGradient>
    </defs>
    <g id="Page-1" stroke="none" stroke-width="1" fill="none" fill-rule="evenodd">
        <g id="Desktop-HD" transform="translate(-32.000000, -17.000000)" fill-rule="nonzero">
            <g id="Navbar">
                <g id="Logo" transform="translate(32.000000, 17.000000)">
                    <g id="Group-6">
                        <path d="M85.330178,40.336 C89.838178,40.336 92.274178,37.732 93.478178,35.324 L89.334178,33.364 C88.718178,34.848 87.122178,36.08 85.330178,36.08 C82.278178,36.08 80.122178,33.728 80.122178,30.676 C80.122178,27.624 82.278178,25.272 85.330178,25.272 C87.122178,25.272 88.718178,26.504 89.334178,27.988 L93.478178,26.028 C92.246178,23.564 89.838178,21.016 85.330178,21.016 C79.590178,21.016 75.222178,24.908 75.222178,30.676 C75.222178,36.416 79.590178,40.336 85.330178,40.336 Z M107.168724,40.336 C112.880724,40.336 117.136724,36.36 117.136724,30.676 C117.136724,24.992 112.880724,21.016 107.168724,21.016 C101.456724,21.016 97.172724,24.992 97.172724,30.676 C97.172724,36.36 101.456724,40.336 107.168724,40.336 Z M107.168724,36.08 C104.060724,36.08 102.072724,33.7 102.072724,30.676 C102.072724,27.624 104.060724,25.272 107.168724,25.272 C110.248724,25.272 112.236724,27.624 112.236724,30.676 C112.236724,33.7 110.248724,36.08 107.168724,36.08 Z M132.67527,40 L139.73127,21.324 L134.27127,21.324 L129.65127,34.792 L125.05927,21.324 L119.59927,21.324 L126.62727,40 L132.67527,40 Z M153.589816,40 L153.589816,32.468 L160.645816,21.324 L155.185816,21.324 L151.181816,28.212 L147.121816,21.324 L141.689816,21.324 L148.773816,32.468 L148.773816,40 L153.589816,40 Z M175.512362,40 C179.180362,40 181.000362,37.648 181.000362,34.932 C181.000362,32.58 179.432362,30.676 177.444362,30.368 C179.208362,29.976 180.636362,28.408 180.636362,26.084 C180.636362,23.732 178.872362,21.324 175.176362,21.324 L164.592362,21.324 L164.592362,40 L175.512362,40 Z M174.084362,28.492 L169.408362,28.492 L169.408362,25.384 L174.084362,25.384 C175.064362,25.384 175.736362,26.028 175.736362,26.924 C175.736362,27.848 175.064362,28.492 174.084362,28.492 Z M174.252362,35.94 L169.408362,35.94 L169.408362,32.58 L174.252362,32.58 C175.428362,32.58 176.100362,33.336 176.100362,34.26 C176.100362,35.268 175.400362,35.94 174.252362,35.94 Z M195.250908,40.336 C200.962908,40.336 205.218908,36.36 205.218908,30.676 C205.218908,24.992 200.962908,21.016 195.250908,21.016 C189.538908,21.016 185.254908,24.992 185.254908,30.676 C185.254908,36.36 189.538908,40.336 195.250908,40.336 Z M195.250908,36.08 C192.142908,36.08 190.154908,33.7 190.154908,30.676 C190.154908,27.624 192.142908,25.272 195.250908,25.272 C198.330908,25.272 200.318908,27.624 200.318908,30.676 C200.318908,33.7 198.330908,36.08 195.250908,36.08 Z M218.601454,40 L218.601454,25.524 L223.809454,25.524 L223.809454,21.324 L208.549454,21.324 L208.549454,25.524 L213.785454,25.524 L213.785454,40 L218.601454,40 Z" id="COVYBOT" fill="#485CD0"></path>
                        <g id="medical">
                            <circle id="Oval" fill="url(#linearGradient-1)" cx="31" cy="31" r="31"></circle>
                            <g id="Group" transform="translate(8.000000, 17.000000)">
                                <path d="M15.5075263,21.7882927 L2.75395263,21.7882927 L2.75395263,12.2846341 C2.75395263,11.5354878 3.46291053,10.9269512 4.22270263,10.9269512 L8.57663421,10.9269512 L5.38855,8.21158537 L4.22270263,8.21158537 C1.94481053,8.21158537 0,10.0386585 0,12.2846341 L0,21.7882927 C0,23.285122 1.23572895,24.5036585 2.75395263,24.5036585 L12.0153026,24.5036585 L15.5075263,21.7882927 Z" id="Path" fill="#E9F2F2"></path>
                                <path d="M42.8691947,8.21170732 L41.6115737,8.21170732 L38.4234895,10.9270732 L42.8691947,10.9270732 C43.6289868,10.9270732 44.2461711,11.5356098 44.2461711,12.2847561 L44.2461711,21.7884146 L31.4924737,21.7884146 L34.9848211,24.5037805 L44.2461711,24.5037805 C45.7642711,24.5037805 47.0001237,23.2853659 47.0001237,21.7884146 L47.0001237,12.2847561 C47.0001237,10.0386585 45.1469632,8.21170732 42.8691947,8.21170732 Z" id="Path" fill="#D5E5E5"></path>
                                <path d="M40.0234684,8.21170732 C36.6216579,8.21170732 34.9217421,6.69085366 32.7352526,4.53646341 C30.6106053,2.44036585 28.2009895,0.0657317073 23.5,0.0657317073 C18.7990105,0.0657317073 16.3893947,2.44036585 14.2647474,4.53646341 C12.0530263,6.71560976 10.37525,8.21170732 6.97653158,8.21170732 L5.38842632,8.21170732 C6.97974737,19.0378049 12.5116474,29.9342683 23.5,29.9342683 C34.5088842,29.9342683 40.0242105,19.0108537 41.61145,8.21170732 L40.0234684,8.21170732 Z" id="Path" fill="url(#linearGradient-2)"></path>
                                <g transform="translate(13.852632, 8.170732)" fill="#5A9898" id="Path">
                                    <polygon points="5.51656316 10.9021951 5.51656316 13.617561 9.64736842 13.617561 13.7781737 13.617561 13.7781737 10.9021951 9.64736842 10.9021951"></polygon>
                                    <polygon points="13.7781737 2.75634146 13.7781737 0.0409756098 9.64736842 0.0409756098 5.51656316 0.0409756098 5.51656316 2.75634146 9.64736842 2.75634146"></polygon>
                                    <polygon points="9.64736842 5.47158537 0.00865789474 5.47158537 0.00865789474 8.18695122 9.64736842 8.18695122 19.2860789 8.18695122 19.2860789 5.47158537"></polygon>
                                </g>
                            </g>
                        </g>
                    </g>
                </g>
            </g>
        </g>
    </g>
</svg>